…
    ##   TRUE     0    0    0    0    0    0    0    0    0    0    0    0    0
    ##        
    ##         1983 1984 1985 1986 1987 1988 1989 1990 1991 1992 1993 1994 1995
    ##   FALSE    3    3    3    3    3    3    3    3    3    3    3    0    0
    ##   TRUE     0    0    0    0    0    0    0    0    0    0    0    3    3
    ##        
    ##         1996 1997 1998 1999 2000 2001 2002 2003 2004 2005 2006 2007 2008
    ##   FALSE    0    0    0    0    0    0    0    0    0    0    0    0    0
    ##   TRUE     3    3    3    3    3    3    3    3    3    3    3    3    3
    ##        
    ##         2009 2010 2011 2012 2013 2014 2015 2016 2017
    ##   FALSE    0    0    0    0    0    0    0    0    0
    ##   TRUE     3    3    3    3    3    3    3    3    3

    ## # A tibble: 48 x 1
    ##    NAFTA
    ##    <dbl>
    ##  1     0
    ##  2     1
    ##  3     1
    ##  4     1
    ##  5     1
    ##  6     1
    ##  7     1
    ##  8     0
    ##  9     0
    ## 10     0
    ## # … with 38 more rows
…
